/Users/apple/Desktop/workspace/simple_calendar/src/main/java/jp/co/simple_calendar/form/UserForm.java
/Users/apple/Desktop/workspace/simple_calendar/src/main/java/jp/co/simple_calendar/controller/CalendarController.java
/Users/apple/Desktop/workspace/simple_calendar/src/main/java/jp/co/simple_calendar/dto/EventDto.java
/Users/apple/Desktop/workspace/simple_calendar/src/main/java/jp/co/simple_calendar/service/EventService.java
/Users/apple/Desktop/workspace/simple_calendar/src/main/java/jp/co/simple_calendar/controller/RestWebController.java
/Users/apple/Desktop/workspace/simple_calendar/src/main/java/jp/co/simple_calendar/dto/UserDto.java
/Users/apple/Desktop/workspace/simple_calendar/src/main/java/jp/co/simple_calendar/controller/LoginController.java
/Users/apple/Desktop/workspace/simple_calendar/src/main/java/jp/co/simple_calendar/entity/User.java
/Users/apple/Desktop/workspace/simple_calendar/src/main/java/jp/co/simple_calendar/mapper/UserMapper.java
/Users/apple/Desktop/workspace/simple_calendar/src/main/java/jp/co/simple_calendar/security/SecurityConfig.java
/Users/apple/Desktop/workspace/simple_calendar/src/main/java/jp/co/simple_calendar/service/UserService.java
/Users/apple/Desktop/workspace/simple_calendar/src/main/java/jp/co/simple_calendar/mapper/EventMapper.java
/Users/apple/Desktop/workspace/simple_calendar/src/main/java/jp/co/simple_calendar/form/EventForm.java
/Users/apple/Desktop/workspace/simple_calendar/src/main/java/jp/co/simple_calendar/entity/Event.java
/Users/apple/Desktop/workspace/simple_calendar/src/main/java/jp/co/simple_calendar/controller/SignupController.java
/Users/apple/Desktop/workspace/simple_calendar/src/main/java/jp/co/simple_calendar/controller/ManagementController.java
